%YAML 1.1
%TAG !u! tag:unity3d.com,2011:
--- !u!114 &-6467886487732665063
MonoBehaviour:
  m_ObjectHideFlags: 11
  m_CorrespondingSourceObject: {fileID: 0}
  m_PrefabInstance: {fileID: 0}
  m_PrefabAsset: {fileID: 0}
  m_GameObject: {fileID: 0}
  m_Enabled: 1
  m_EditorHideFlags: 0
  m_Script: {fileID: 11500000, guid: d0353a89b1f911e48b9e16bdc9f2e058, type: 3}
  m_Name: 
  m_EditorClassIdentifier: 
  version: 4
--- !u!21 &2100000
Material:
  serializedVersion: 6
  m_ObjectHideFlags: 0
  m_CorrespondingSourceObject: {fileID: 0}
  m_PrefabInstance: {fileID: 0}
  m_PrefabAsset: {fileID: 0}
  m_Name: Crystal B
  m_Shader: {fileID: 4800000, guid: 933532a4fcc9baf4fa0491de14d08ed7, type: 3}
  m_ShaderKeywords: _EMISSION _METALLICSPECGLOSSMAP _OCCLUSIONMAP
  m_LightmapFlags: 2
  m_EnableInstancingVariants: 0
  m_DoubleSidedGI: 0
  m_CustomRenderQueue: 2000
  stringTagMap:
    RenderType: Opaque
  disabledShaderPasses: []
  m_SavedProperties:
    serializedVersion: 3
    m_TexEnvs:
    - _BaseMap:
        m_Texture: {fileID: 2800000, guid: b38299b8b5f32da4ebb6b54f2d5a966b, type: 3}
        m_Scale: {x: 1, y: 1}
        m_Offset: {x: 0, y: 0}
    - _BumpMap:
        m_Texture: {fileID: 0}
        m_Scale: {x: 1, y: 1}
        m_Offset: {x: 0, y: 0}
    - _DetailAlbedoMap:
        m_Texture: {fileID: 0}
        m_Scale: {x: 1, y: 1}
        m_Offset: {x: 0, y: 0}
    - _DetailMask:
        m_Texture: {fileID: 0}
        m_Scale: {x: 1, y: 1}
        m_Offset: {x: 0, y: 0}
    - _DetailNormalMap:
        m_Texture: {fileID: 0}
        m_Scale: {x: 1, y: 1}
        m_Offset: {x: 0, y: 0}
    - _EmissionMap:
        m_Texture: {fileID: 2800000, guid: 2c9d9aae5a9650b4f9ff6e25881c6ded, type: 3}
        m_Scale: {x: 1, y: 1}
        m_Offset: {x: 0, y: 0}
    - _MainTex:
        m_Texture: {fileID: 2800000, guid: b38299b8b5f32da4ebb6b54f2d5a966b, type: 3}
        m_Scale: {x: 1, y: 1}
        m_Offset: {x: 0, y: 0}
    - _MetallicGlossMap:
        m_Texture: {fileID: 2800000, guid: 007c85ea27709374f818ee60f333fccd, type: 3}
        m_Scale: {x: 1, y: 1}
        m_Offset: {x: 0, y: 0}
    - _OcclusionMap:
        m_Texture: {fileID: 2800000, guid: 27be606c9eb741540a4fb72a0bd11dac, type: 3}
        m_Scale: {x: 1, y: 1}
        m_Offset: {x: 0, y: 0}
    - _ParallaxMap:
        m_Texture: {fileID: 0}
        m_Scale: {x: 1, y: 1}
        m_Offset: {x: 0, y: 0}
    - _SpecGlossMap:
        m_Texture: {fileID: 0}
        m_Scale: {x: 1, y: 1}
        m_Offset: {x: 0, y: 0}
    - unity_Lightmaps:
        m_Texture: {fileID: 0}
        m_Scale: {x: 1, y: 1}
        m_Offset: {x: 0, y: 0}
    - unity_LightmapsInd:
        m_Texture: {fileID: 0}
        m_Scale: {x: 1, y: 1}
        m_Offset: {x: 0, y: 0}
    - unity_ShadowMasks:
        m_Texture: {fileID: 0}
        m_Scale: {x: 1, y: 1}
        m_Offset: {x: 0, y: 0}
    m_Floats:
    - _AlphaClip: 0
    - _Blend: 0
    - _BumpScale: 1
    - _ClearCoatMask: 0
    - _ClearCoatSmoothness: 0
    - _Cull: 2
    - _Cutoff: 0.5
    - _DetailAlbedoMapScale: 1
    - _DetailNormalMapScale: 1
    - _DstBlend: 0
    - _EnvironmentReflections: 1
    - _GlossMapScale: 0
    - _Glossiness: 0
    - _GlossyReflections: 0
    - _Metallic: 0
    - _OcclusionStrength: 1
    - _Parallax: 0.005
    - _QueueOffset: 0
    - _ReceiveShadows: 1
    - _Smoothness: 0.5
    - _SmoothnessTextureChannel: 0
    - _SpecularHighlights: 1
    - _SrcBlend: 1
    - _Surface: 0
    - _WorkflowMode: 1
    - _ZWrite: 1
    m_Colors:
    - _BaseColor: {r: 1, g: 1, b: 1, a: 1}
    - _Color: {r: 1, g: 1, b: 1, a: 1}
    - _EmissionColor: {r: 4.9245777, g: 4.9245777, b: 4.9245777, a: 1}
    - _SpecColor: {r: 0.19999996, g: 0.19999996, b: 0.19999996, a: 1}
  m_BuildTextureStacks: []
